%MatrixMarket matrix coordinate pattern symmetric 
4785 4785 15
445 51
3133 192
4439 689
2860 716
2605 1200
2842 1200
4136 1367
2565 1378
4136 1500
2127 1920
2411 2019
3433 2174
4536 2605
4136 2935
4785 3509
