%MatrixMarket matrix coordinate pattern symmetric 
4659 4659 129
2603 17
1723 201
2121 201
2603 201
3141 201
3657 201
3913 201
2603 340
473 353
716 457
725 457
1107 457
1397 457
1723 457
2121 457
2365 457
2420 457
2603 457
2638 457
3657 457
3725 457
3913 457
1584 467
2599 467
985 481
2638 481
3685 481
3725 481
1349 656
1289 716
1397 716
2121 716
2420 716
2603 716
2725 716
2851 716
3036 716
3657 716
3669 716
3913 716
951 723
2365 725
2638 985
3685 985
1828 1002
1563 1107
1723 1107
2121 1107
2365 1107
2420 1107
3657 1107
3913 1107
1723 1111
1563 1244
2121 1244
3577 1244
1397 1289
2121 1289
2603 1289
2725 1289
2851 1289
3036 1289
3657 1289
3669 1289
3913 1289
1799 1397
2121 1397
2365 1397
3657 1397
3913 1397
3602 1529
2121 1563
3913 1563
4575 1586
1915 1712
2121 1723
2365 1723
2420 1723
2603 1723
2638 1723
3141 1723
3657 1723
3913 1723
2667 1805
2369 1921
3150 1966
2365 2121
2420 2121
2603 2121
3036 2121
3141 2121
3577 2121
3657 2121
3913 2121
2420 2365
2603 2365
3657 2365
3913 2365
4260 2391
2603 2420
3657 2420
3913 2420
2548 2438
4659 2599
3036 2603
3657 2603
3913 2603
3657 2638
3685 2638
3913 2638
3657 2725
3669 2725
3075 2755
3657 2761
3657 2851
4046 2880
3657 3036
3913 3036
3202 3137
3657 3141
3913 3141
3913 3577
3669 3657
3913 3657
4252 3657
3852 3713
3760 3725
4252 3913
4191 3985
