%MatrixMarket matrix coordinate pattern symmetric 
6805 6805 91
1464 537
1634 537
2606 537
2708 537
3194 537
3493 537
4470 537
4936 537
5709 537
5842 537
5933 537
6453 537
6488 537
6805 537
1723 726
2684 1376
4055 1376
4251 1376
4622 1376
2606 1634
2708 1634
3493 1634
4105 1634
4470 1634
4936 1634
6453 1634
6805 1634
2708 2606
4105 2606
4470 2606
4936 2606
6453 2606
6805 2606
2708 2642
4936 2642
6453 2642
6488 2642
6805 2642
4055 2684
4622 2684
3194 2708
3493 2708
4470 2708
4936 2708
5709 2708
5933 2708
6453 2708
6488 2708
6805 2708
4936 3194
5933 3194
6453 3194
6488 3194
6805 3194
4105 3493
4715 3493
4936 3493
6453 3493
6805 3493
5709 3796
4251 4055
4622 4055
4715 4105
4936 4105
6194 4141
4622 4251
4936 4470
5709 4470
5933 4470
6453 4470
6488 4470
6805 4470
4936 4715
6453 4715
5709 4936
5842 4936
5933 4936
6453 4936
6488 4936
6805 4936
6453 5709
6488 5709
6805 5709
6453 5842
6805 5842
6453 5933
6488 5933
6805 5933
6488 6453
6805 6453
6805 6488
