%MatrixMarket matrix coordinate pattern symmetric 
2035 2035 96
1206 5
956 32
1326 32
1374 32
1690 32
254 70
750 70
956 70
1326 70
1339 70
1374 70
1497 70
1519 70
1690 70
1962 70
1374 209
1416 209
956 228
1326 228
1374 228
1690 228
750 254
956 254
1326 254
1348 254
1374 254
1690 254
1962 254
956 478
1519 478
1374 494
1690 494
749 502
956 502
1269 502
1326 502
1339 502
1374 502
1690 502
1374 536
1519 630
956 749
1269 749
1326 749
1339 749
1374 749
1690 749
956 750
999 750
1326 750
1339 750
1374 750
1519 750
1690 750
1962 750
956 758
2035 859
1269 956
1326 956
1339 956
1348 956
1374 956
1416 956
1519 956
1690 956
1788 956
1926 956
1962 956
1339 1112
1903 1240
1326 1269
1339 1269
1374 1269
1690 1269
1339 1326
1348 1326
1374 1326
1519 1326
1690 1326
1926 1326
1962 1326
1374 1339
1690 1339
1962 1339
1374 1348
1690 1348
1962 1348
1416 1374
1519 1374
1690 1374
1926 1374
1962 1374
1690 1519
1926 1519
1926 1690
1962 1690
